[{
  "title": "My Profile",
  "link" : "/profile"
}, {
  "title": "View Saved Offers",
  "newTitle": "Favorites",
  "link" : "/saved"
}, {
  "title": "View More Offers",
  "newTitle": "Browse Offers",
  "link" : "/more-offers/",
  "appendSubscriberGUID" : true
}, {
  "title": "Markets",
  "link" : "/sm/",
  "appendSubscriberGUID" : true
}, {
  "title": "Help",
  "newTitle": "TapOnIt How-To",
  "link" : "/tutorial"
}]
